Tidy bootstrapping with dplyr+broom
…
We use do to perform an nls fit on each replication, using tidy to recombine:

library(dplyr)
library(broom)
set.seed(2014)
bootnls <- mtcars %>% bootstrap(100) %>%
    do(tidy(nls(mpg ~ k / wt + b, ., start=list(k=1, b=0))))

This produces a summary of each replication, combined into one data.frame:

bootnls

## # A tibble: 200 x 6
## # Groups:   replicate [100]
##    replicate term  estimate std.error statistic           p.value
##        <int> <chr>    <dbl>     <dbl>     <dbl>             <dbl>
##  1         1 k        46.6       4.03    11.6   0.00000000000134 
##  2         1 b         4.36      1.54     2.83  0.00813          
##  3         2 k        54.2       4.96    10.9   0.00000000000576 
##  4         2 b         1.00      1.90     0.530 0.600            
##  5         3 k        43.3       3.56    12.1   0.000000000000422
##  6         3 b         4.83      1.30     3.72  0.000810         
##  7         4 k        48.5       4.46    10.9   0.00000000000607 
##  8         4 b         3.51      1.69     2.08  0.0464           
##  9         5 k        52.6       5.66     9.29  0.000000000247   
## 10         5 b         3.34      2.30     1.45  0.156            
## # ... with 190 more rows
…
