Programming with dplyr
…
Different input and output variable

The next challenge is to vary the name of the output variables:

mutate(df, mean_a = mean(a), sum_a = sum(a))
#> # A tibble: 5 x 6
#>      g1    g2     a     b mean_a sum_a
#>   <dbl> <dbl> <int> <int>  <dbl> <int>
#> 1  1.00  1.00     1     3   3.00    15
#> 2  1.00  2.00     4     2   3.00    15
#> 3  2.00  1.00     2     1   3.00    15
#> 4  2.00  2.00     5     4   3.00    15
#> # ... with 1 more row
mutate(df, mean_b = mean(b), sum_b = sum(b))
#> # A tibble: 5 x 6
#>      g1    g2     a     b mean_b sum_b
#>   <dbl> <dbl> <int> <int>  <dbl> <int>
#> 1  1.00  1.00     1     3   3.00    15
#> 2  1.00  2.00     4     2   3.00    15
#> 3  2.00  1.00     2     1   3.00    15
#> 4  2.00  2.00     5     4   3.00    15
#> # ... with 1 more row
…
!!mean_name = mean(!!expr) isn’t valid R code, so we need to use the := helper provided by rlang.

my_mutate <- function(df, expr) {
  expr <- enquo(expr)
  mean_name <- paste0("mean_", quo_name(expr))
  sum_name <- paste0("sum_", quo_name(expr))
  
  mutate(df, 
    !!mean_name := mean(!!expr), 
    !!sum_name := sum(!!expr)
  )
}

my_mutate(df, a)
#> # A tibble: 5 x 6
#>      g1    g2     a     b mean_a sum_a
#>   <dbl> <dbl> <int> <int>  <dbl> <int>
#> 1  1.00  1.00     1     3   3.00    15
#> 2  1.00  2.00     4     2   3.00    15
#> 3  2.00  1.00     2     1   3.00    15
#> 4  2.00  2.00     5     4   3.00    15
#> # ... with 1 more row
…
