Selecting Variables
…
dummied <- rec %>% step_dummy(all_nominal())

This will capture any variables that are either character strings or factors: Status and Records. However, since Status is our outcome, we might want to keep it as a factor so we can subtract that variable out either by name or by role:

dummied <- rec %>% step_dummy(Records) # or
dummied <- rec %>% step_dummy(all_nominal(), - Status) # or
dummied <- rec %>% step_dummy(all_nominal(), - all_outcomes()) 

Using the last definition:

dummied <- prep(dummied, training = credit_data)
with_dummy <- bake(dummied, newdata = credit_data)
with_dummy
#> # A tibble: 4,454 x 5
#>    Status Seniority  Time   Age Records_yes
#>    <fctr>     <int> <int> <int>       <dbl>
#>  1 good           9    60    30        0   
#>  2 good          17    60    58        0   
#>  3 bad           10    36    46        1.00
#>  4 good           0    60    24        0   
#>  5 good           0    36    26        0   
#>  6 good           1    60    36        0   
#>  7 good          29    60    44        0   
#>  8 good           9    12    27        0   
#>  9 good           0    60    32        0   
#> 10 bad            0    48    41        0   
#> # ... with 4,444 more rows
…
