Window functions
…
If you’re familiar with R, you may recognise that row_number() and min_rank() can be computed with the base rank() function and various values of the ties.method argument. These functions are provided to save a little typing, and to make it easier to convert between R and SQL.

Two other ranking functions return numbers between 0 and 1. percent_rank() gives the percentage of the rank; cume_dist() gives the proportion of values less than or equal to the current value.

cume_dist(x)
#> [1] 0.4 0.4 1.0 1.0 1.0
percent_rank(x)
#> [1] 0.0 0.0 0.5 0.5 0.5

These are useful if you want to select (for example) the top 10% of records within each group. For example:

filter(players, cume_dist(desc(G)) < 0.1)
#> # A tibble: 1,010 x 7
#> # Groups:   playerID [920]
#>   playerID  yearID teamID     G    AB     R     H
#>   <chr>      <int> <fct>  <int> <int> <int> <int>
#> 1 aaronha01   1963 ML1      161   631   121   201
#> 2 aaronha01   1968 ATL      160   606    84   174
#> 3 abbotji01   1991 CAL       34     0     0     0
#> 4 abernte02   1965 CHN       84    18     1     3
#> # … with 1,006 more rows
…
R’s vector recycling makes it easy to select values that are higher or lower than a summary. I call this a recycled aggregate because the value of the aggregate is recycled to be the same length as the original vector. Recycled aggregates are useful if you want to find all records greater than the mean or less than the median:

filter(players, G > mean(G))
filter(players, G < median(G))

While most SQL databases don’t have an equivalent of median() or quantile(), when filtering you can achieve the same effect with ntile(). For example, x > median(x) is equivalent to ntile(x, 2) == 2; x > quantile(x, 75) is equivalent to ntile(x, 100) > 75 or ntile(x, 4) > 3.

filter(players, ntile(G, 2) == 2)

You can also use this idea to select the records with the highest (x == max(x)) or lowest value (x == min(x)) for a field, but the ranking functions give you more control over ties, and allow you to select any number of records.

Recycled aggregates are also useful in conjunction with mutate(). For example, with the batting data, we could compute the “career year”, the number of years a player has played since they entered the league:

mutate(players, career_year = yearID - min(yearID) + 1)
#> # A tibble: 19,404 x 8
#> # Groups:   playerID [1,342]
#>   playerID  yearID teamID     G    AB     R     H career_year
#>   <chr>      <int> <fct>  <int> <int> <int> <int>       <dbl>
#> 1 aaronha01   1954 ML1      122   468    58   131           1
#> 2 aaronha01   1955 ML1      153   602   105   189           2
#> 3 aaronha01   1956 ML1      153   609   106   200           3
#> 4 aaronha01   1957 ML1      151   615   118   198           4
#> # … with 19,400 more rows

Or, as in the introductory example, we could compute a z-score:

mutate(players, G_z = (G - mean(G)) / sd(G))
#> # A tibble: 19,404 x 8
#> # Groups:   playerID [1,342]
#>   playerID  yearID teamID     G    AB     R     H    G_z
#>   <chr>      <int> <fct>  <int> <int> <int> <int>  <dbl>
#> 1 aaronha01   1954 ML1      122   468    58   131 -1.16 
#> 2 aaronha01   1955 ML1      153   602   105   189  0.519
#> 3 aaronha01   1956 ML1      153   609   106   200  0.519
#> 4 aaronha01   1957 ML1      151   615   118   198  0.411
#> # … with 19,400 more rows
