Window functions
…
If you’re familiar with R, you may recognise that row_number() and min_rank() can be computed with the base rank() function and various values of the ties.method argument. These functions are provided to save a little typing, and to make it easier to convert between R and SQL.

Two other ranking functions return numbers between 0 and 1. percent_rank() gives the percentage of the rank; cume_dist() gives the proportion of values less than or equal to the current value.

cume_dist(x)
#> [1] 0.4 0.4 1.0 1.0 1.0
percent_rank(x)
#> [1] 0.0 0.0 0.5 0.5 0.5

These are useful if you want to select (for example) the top 10% of records within each group. For example:

filter(players, cume_dist(desc(G)) < 0.1)
#> # A tibble: 995 x 7
#> # Groups:   playerID [906]
#>    playerID yearID teamID     G    AB     R     H
#>       <chr>  <int> <fctr> <int> <int> <int> <int>
#> 1  bondto01   1880    BSN    76   282    27    62
#> 2 hinespa01   1887    WS8   123   478    83   147
#> 3 hinespa01   1888    IN3   133   513    84   144
#> 4 radboch01   1883    PRO    89   381    59   108
#> # ... with 991 more rows
…
R’s vector recycling make it easy to select values that are higher or lower than a summary. I call this a recycled aggregate because the value of the aggregate is recycled to be the same length as the original vector. Recycled aggregates are useful if you want to find all records greater than the mean or less than the median:

filter(players, G > mean(G))
filter(players, G < median(G))

While most SQL databases don’t have an equivalent of median() or quantile(), when filtering you can achieve the same effect with ntile(). For example, x > median(x) is equivalent to ntile(x, 2) == 2; x > quantile(x, 75) is equivalent to ntile(x, 100) > 75 or ntile(x, 4) > 3.

filter(players, ntile(G, 2) == 2)

You can also use this idea to select the records with the highest (x == max(x)) or lowest value (x == min(x)) for a field, but the ranking functions give you more control over ties, and allow you to select any number of records.

Recycled aggregates are also useful in conjunction with mutate(). For example, with the batting data, we could compute the “career year”, the number of years a player has played since they entered the league:

mutate(players, career_year = yearID - min(yearID) + 1)
#> # A tibble: 19,113 x 8
#> # Groups:   playerID [1,322]
#>   playerID yearID teamID     G    AB     R     H career_year
#>      <chr>  <int> <fctr> <int> <int> <int> <int>       <dbl>
#> 1 bondto01   1874    BR2    55   245    25    54           1
#> 2 bondto01   1875    HR1    72   289    32    77           2
#> 3 bondto01   1876    HAR    45   182    18    50           3
#> 4 bondto01   1877    BSN    61   259    32    59           4
#> # ... with 19,109 more rows

Or, as in the introductory example, we could compute a z-score:

mutate(players, G_z = (G - mean(G)) / sd(G))
#> # A tibble: 19,113 x 8
#> # Groups:   playerID [1,322]
#>   playerID yearID teamID     G    AB     R     H        G_z
#>      <chr>  <int> <fctr> <int> <int> <int> <int>      <dbl>
#> 1 bondto01   1874    BR2    55   245    25    54 0.39424925
#> 2 bondto01   1875    HR1    72   289    32    77 1.02437412
#> 3 bondto01   1876    HAR    45   182    18    50 0.02358756
#> 4 bondto01   1877    BSN    61   259    32    59 0.61664626
#> # ... with 19,109 more rows
