Introduction to readr
…
The rectangular parsing functions almost always succeed; they’ll only fail if the format is severely messed up. Instead, readr will generate a data frame of problems. The first few will be printed out, and you can access them all with problems():

problems(df1)
#> # A tibble: 1,000 × 5
#>      row   col               expected             actual
#>    <int> <chr>                  <chr>              <chr>
#> 1   1001     x no trailing characters .23837975086644292
#> 2   1002     x no trailing characters .41167997173033655
#> 3   1003     x no trailing characters  .7460716762579978
#> 4   1004     x no trailing characters   .723450553836301
#> 5   1005     x no trailing characters   .614524137461558
#> 6   1006     x no trailing characters   .473980569280684
#> 7   1007     x no trailing characters  .5784610391128808
#> 8   1008     x no trailing characters  .2415937229525298
#> 9   1009     x no trailing characters .11437866208143532
#> 10  1010     x no trailing characters  .2983446326106787
#> # ... with 990 more rows, and 1 more variables: file <chr>
…
